{
  "users": [
    {
      "id": 1,
      "first": "Franco",
      "last": "Folliero",
      "handel": "@simevo"
    },
    {
      "id": 2,
      "first": "Rolando",
      "last": "Sabbatini",
      "handel": "@simevo"
    },
    {
      "id": 3,
      "first": "Lucilla",
      "last": "Cremonesi",
      "handel": "@simevo"
    },
    {
      "id": 4,
      "first": "Gilberto",
      "last": "Genovesi",
      "handel": "@simevo"
    },
    {
      "id": 5,
      "first": "Fioretta",
      "last": "Marchesi",
      "handel": "@simevo"
    },
    {
      "id": 6,
      "first": "Enzo",
      "last": "Fallaci",
      "handel": "@simevo"
    },
    {
      "id": 7,
      "first": "Alma",
      "last": "Cocci",
      "handel": "@simevo"
    },
    {
      "id": 8,
      "first": "Ermes",
      "last": "Pinto",
      "handel": "@simevo"
    },
    {
      "id": 9,
      "first": "Gabriella",
      "last": "Dellucci",
      "handel": "@simevo"
    },
    {
      "id": 10,
      "first": "Veronica",
      "last": "Milani",
      "handel": "@simevo"
    }
  ]
}

